第3课 tidyverse
…
3.1 剔除缺失值

3.1.1
任意一个变量有缺失就剔除

#剔除任意一个变量有缺失值的个案，保留所有变量都有值的个案
#方法一： na.omit()
flights %>% 
  na.omit() 

# A tibble: 327,346 × 19
    year month   day dep_time sched_dep_time dep_delay arr_time sched_arr_time
   <int> <int> <int>    <int>          <int>     <dbl>    <int>          <int>
 1  2013     1     1      517            515         2      830            819
 2  2013     1     1      533            529         4      850            830
 3  2013     1     1      542            540         2      923            850
 4  2013     1     1      544            545        -1     1004           1022
 5  2013     1     1      554            600        -6      812            837
 6  2013     1     1      554            558        -4      740            728
 7  2013     1     1      555            600        -5      913            854
 8  2013     1     1      557            600        -3      709            723
 9  2013     1     1      557            600        -3      838            846
10  2013     1     1      558            600        -2      753            745
# ℹ 327,336 more rows
# ℹ 11 more variables: arr_delay <dbl>, carrier <chr>, flight <int>,
#   tailnum <chr>, origin <chr>, dest <chr>, air_time <dbl>, distance <dbl>,
#   hour <dbl>, minute <dbl>, time_hour <dttm>

# 第17-18行的输出并未保存，若要保存需要将其存为对象中
mydata <- flights %>% 
  na.omit()

#方法二：filter(complete.cases(.)) 
flights %>% 
  filter(complete.cases(.))

# A tibble: 327,346 × 19
    year month   day dep_time sched_dep_time dep_delay arr_time sched_arr_time
   <int> <int> <int>    <int>          <int>     <dbl>    <int>          <int>
 1  2013     1     1      517            515         2      830            819
 2  2013     1     1      533            529         4      850            830
 3  2013     1     1      542            540         2      923            850
 4  2013     1     1      544            545        -1     1004           1022
 5  2013     1     1      554            600        -6      812            837
 6  2013     1     1      554            558        -4      740            728
 7  2013     1     1      555            600        -5      913            854
 8  2013     1     1      557            600        -3      709            723
 9  2013     1     1      557            600        -3      838            846
10  2013     1     1      558            600        -2      753            745
# ℹ 327,336 more rows
# ℹ 11 more variables: arr_delay <dbl>, carrier <chr>, flight <int>,
#   tailnum <chr>, origin <chr>, dest <chr>, air_time <dbl>, distance <dbl>,
#   hour <dbl>, minute <dbl>, time_hour <dttm>

# 查看有缺失值的个案 filter(!complete.cases(.)) 
flights %>% 
  filter(!complete.cases(.))

# A tibble: 9,430 × 19
    year month   day dep_time sched_dep_time dep_delay arr_time sched_arr_time
   <int> <int> <int>    <int>          <int>     <dbl>    <int>          <int>
 1  2013     1     1     1525           1530        -5     1934           1805
 2  2013     1     1     1528           1459        29     2002           1647
 3  2013     1     1     1740           1745        -5     2158           2020
 4  2013     1     1     1807           1738        29     2251           2103
 5  2013     1     1     1939           1840        59       29           2151
 6  2013     1     1     1952           1930        22     2358           2207
 7  2013     1     1     2016           1930        46       NA           2220
 8  2013     1     1       NA           1630        NA       NA           1815
 9  2013     1     1       NA           1935        NA       NA           2240
10  2013     1     1       NA           1500        NA       NA           1825
# ℹ 9,420 more rows
# ℹ 11 more variables: arr_delay <dbl>, carrier <chr>, flight <int>,
#   tailnum <chr>, origin <chr>, dest <chr>, air_time <dbl>, distance <dbl>,
#   hour <dbl>, minute <dbl>, time_hour <dttm>

3.1.2
某个变量有缺失就剔除

# 方法一： drop_na(var_name)
flights %>% 
  drop_na(tailnum) 

# A tibble: 334,264 × 19
    year month   day dep_time sched_dep_time dep_delay arr_time sched_arr_time
   <int> <int> <int>    <int>          <int>     <dbl>    <int>          <int>
 1  2013     1     1      517            515         2      830            819
 2  2013     1     1      533            529         4      850            830
 3  2013     1     1      542            540         2      923            850
 4  2013     1     1      544            545        -1     1004           1022
 5  2013     1     1      554            600        -6      812            837
 6  2013     1     1      554            558        -4      740            728
 7  2013     1     1      555            600        -5      913            854
 8  2013     1     1      557            600        -3      709            723
 9  2013     1     1      557            600        -3      838            846
10  2013     1     1      558            600        -2      753            745
# ℹ 334,254 more rows
# ℹ 11 more variables: arr_delay <dbl>, carrier <chr>, flight <int>,
#   tailnum <chr>, origin <chr>, dest <chr>, air_time <dbl>, distance <dbl>,
#   hour <dbl>, minute <dbl>, time_hour <dttm>

# 方法二： filter(!is.na(var_name))
flights %>% 
  filter(!is.na(air_time))

# A tibble: 327,346 × 19
    year month   day dep_time sched_dep_time dep_delay arr_time sched_arr_time
   <int> <int> <int>    <int>          <int>     <dbl>    <int>          <int>
 1  2013     1     1      517            515         2      830            819
 2  2013     1     1      533            529         4      850            830
 3  2013     1     1      542            540         2      923            850
 4  2013     1     1      544            545        -1     1004           1022
 5  2013     1     1      554            600        -6      812            837
 6  2013     1     1      554            558        -4      740            728
 7  2013     1     1      555            600        -5      913            854
 8  2013     1     1      557            600        -3      709            723
 9  2013     1     1      557            600        -3      838            846
10  2013     1     1      558            600        -2      753            745
# ℹ 327,336 more rows
# ℹ 11 more variables: arr_delay <dbl>, carrier <chr>, flight <int>,
#   tailnum <chr>, origin <chr>, dest <chr>, air_time <dbl>, distance <dbl>,
#   hour <dbl>, minute <dbl>, time_hour <dttm>
…
#所有列都相同，
data <-flights %>% 
  na.omit() %>% 
  distinct() 

3.2.2
指定列相同就剔除

flights %>% 
  na.omit() %>% 
  distinct(flight, tailnum) 

# A tibble: 176,856 × 2
   flight tailnum
    <int> <chr>  
 1   1545 N14228 
 2   1714 N24211 
 3   1141 N619AA 
 4    725 N804JB 
 5    461 N668DN 
 6   1696 N39463 
 7    507 N516JB 
 8   5708 N829AS 
 9     79 N593JB 
10    301 N3ALAA 
# ℹ 176,846 more rows

3.3 filter()
提取满足条件的行

# 用逗号分隔多个需要同时满足的条件
flights %>% 
  filter(month == 1, day ==1)

# A tibble: 842 × 19
    year month   day dep_time sched_dep_time dep_delay arr_time sched_arr_time
   <int> <int> <int>    <int>          <int>     <dbl>    <int>          <int>
 1  2013     1     1      517            515         2      830            819
 2  2013     1     1      533            529         4      850            830
 3  2013     1     1      542            540         2      923            850
 4  2013     1     1      544            545        -1     1004           1022
 5  2013     1     1      554            600        -6      812            837
 6  2013     1     1      554            558        -4      740            728
 7  2013     1     1      555            600        -5      913            854
 8  2013     1     1      557            600        -3      709            723
 9  2013     1     1      557            600        -3      838            846
10  2013     1     1      558            600        -2      753            745
# ℹ 832 more rows
# ℹ 11 more variables: arr_delay <dbl>, carrier <chr>, flight <int>,
#   tailnum <chr>, origin <chr>, dest <chr>, air_time <dbl>, distance <dbl>,
#   hour <dbl>, minute <dbl>, time_hour <dttm>

# 且 &
flights %>% 
  filter ((month ==1 | month ==2) & carrier == "UA")

# A tibble: 8,983 × 19
    year month   day dep_time sched_dep_time dep_delay arr_time sched_arr_time
   <int> <int> <int>    <int>          <int>     <dbl>    <int>          <int>
 1  2013     1     1      517            515         2      830            819
 2  2013     1     1      533            529         4      850            830
 3  2013     1     1      554            558        -4      740            728
 4  2013     1     1      558            600        -2      924            917
 5  2013     1     1      558            600        -2      923            937
 6  2013     1     1      559            600        -1      854            902
 7  2013     1     1      607            607         0      858            915
 8  2013     1     1      611            600        11      945            931
 9  2013     1     1      623            627        -4      933            932
10  2013     1     1      628            630        -2     1016            947
# ℹ 8,973 more rows
# ℹ 11 more variables: arr_delay <dbl>, carrier <chr>, flight <int>,
#   tailnum <chr>, origin <chr>, dest <chr>, air_time <dbl>, distance <dbl>,
#   hour <dbl>, minute <dbl>, time_hour <dttm>

# 或 ｜
flights %>% 
  filter(month == 1 | day ==1)

# A tibble: 37,198 × 19
    year month   day dep_time sched_dep_time dep_delay arr_time sched_arr_time
   <int> <int> <int>    <int>          <int>     <dbl>    <int>          <int>
 1  2013     1     1      517            515         2      830            819
 2  2013     1     1      533            529         4      850            830
 3  2013     1     1      542            540         2      923            850
 4  2013     1     1      544            545        -1     1004           1022
 5  2013     1     1      554            600        -6      812            837
 6  2013     1     1      554            558        -4      740            728
 7  2013     1     1      555            600        -5      913            854
 8  2013     1     1      557            600        -3      709            723
 9  2013     1     1      557            600        -3      838            846
10  2013     1     1      558            600        -2      753            745
# ℹ 37,188 more rows
# ℹ 11 more variables: arr_delay <dbl>, carrier <chr>, flight <int>,
#   tailnum <chr>, origin <chr>, dest <chr>, air_time <dbl>, distance <dbl>,
#   hour <dbl>, minute <dbl>, time_hour <dttm>

# %in% 属于
flights %>% 
  filter(carrier %in% c("UA","DL", "AA")) 

# A tibble: 139,504 × 19
    year month   day dep_time sched_dep_time dep_delay arr_time sched_arr_time
   <int> <int> <int>    <int>          <int>     <dbl>    <int>          <int>
 1  2013     1     1      517            515         2      830            819
 2  2013     1     1      533            529         4      850            830
 3  2013     1     1      542            540         2      923            850
 4  2013     1     1      554            600        -6      812            837
 5  2013     1     1      554            558        -4      740            728
 6  2013     1     1      558            600        -2      753            745
 7  2013     1     1      558            600        -2      924            917
 8  2013     1     1      558            600        -2      923            937
 9  2013     1     1      559            600        -1      941            910
10  2013     1     1      559            600        -1      854            902
# ℹ 139,494 more rows
# ℹ 11 more variables: arr_delay <dbl>, carrier <chr>, flight <int>,
#   tailnum <chr>, origin <chr>, dest <chr>, air_time <dbl>, distance <dbl>,
#   hour <dbl>, minute <dbl>, time_hour <dttm>

# != 不等于
flights %>% 
  filter(month ==1, carrier != "UA")

# A tibble: 22,367 × 19
    year month   day dep_time sched_dep_time dep_delay arr_time sched_arr_time
   <int> <int> <int>    <int>          <int>     <dbl>    <int>          <int>
 1  2013     1     1      542            540         2      923            850
 2  2013     1     1      544            545        -1     1004           1022
 3  2013     1     1      554            600        -6      812            837
 4  2013     1     1      555            600        -5      913            854
 5  2013     1     1      557            600        -3      709            723
 6  2013     1     1      557            600        -3      838            846
 7  2013     1     1      558            600        -2      753            745
 8  2013     1     1      558            600        -2      849            851
 9  2013     1     1      558            600        -2      853            856
10  2013     1     1      559            600        -1      941            910
# ℹ 22,357 more rows
# ℹ 11 more variables: arr_delay <dbl>, carrier <chr>, flight <int>,
#   tailnum <chr>, origin <chr>, dest <chr>, air_time <dbl>, distance <dbl>,
#   hour <dbl>, minute <dbl>, time_hour <dttm>

flights %>% 
  filter ((month ==1 | month ==2) & carrier == "UA") 

# A tibble: 8,983 × 19
    year month   day dep_time sched_dep_time dep_delay arr_time sched_arr_time
   <int> <int> <int>    <int>          <int>     <dbl>    <int>          <int>
 1  2013     1     1      517            515         2      830            819
 2  2013     1     1      533            529         4      850            830
 3  2013     1     1      554            558        -4      740            728
 4  2013     1     1      558            600        -2      924            917
 5  2013     1     1      558            600        -2      923            937
 6  2013     1     1      559            600        -1      854            902
 7  2013     1     1      607            607         0      858            915
 8  2013     1     1      611            600        11      945            931
 9  2013     1     1      623            627        -4      933            932
10  2013     1     1      628            630        -2     1016            947
# ℹ 8,973 more rows
# ℹ 11 more variables: arr_delay <dbl>, carrier <chr>, flight <int>,
#   tailnum <chr>, origin <chr>, dest <chr>, air_time <dbl>, distance <dbl>,
#   hour <dbl>, minute <dbl>, time_hour <dttm>

3.4 arrange() 行排序

# 升序
flights %>% 
  select(month, day, distance) %>% 
  arrange(distance)

# A tibble: 336,776 × 3
   month   day distance
   <int> <int>    <dbl>
 1     7    27       17
 2     1     3       80
 3     1     4       80
 4     1     4       80
 5     1     4       80
 6     1     5       80
 7     1     6       80
 8     1     7       80
 9     1     8       80
10     1     9       80
# ℹ 336,766 more rows

# 降序desc()
flights %>% 
  select(month, day, distance) %>% 
  arrange(desc(distance))

# A tibble: 336,776 × 3
   month   day distance
   <int> <int>    <dbl>
 1     1     1     4983
 2     1     2     4983
 3     1     3     4983
 4     1     4     4983
 5     1     5     4983
 6     1     6     4983
 7     1     7     4983
 8     1     8     4983
 9     1     9     4983
10     1    10     4983
# ℹ 336,766 more rows

# 按距离降序，月份升序
flights %>% 
  select(distance, month, day, flight) %>% 
  arrange(desc(distance), month)

# A tibble: 336,776 × 4
   distance month   day flight
      <dbl> <int> <int>  <int>
 1     4983     1     1     51
 2     4983     1     2     51
 3     4983     1     3     51
 4     4983     1     4     51
 5     4983     1     5     51
 6     4983     1     6     51
 7     4983     1     7     51
 8     4983     1     8     51
 9     4983     1     9     51
10     4983     1    10     51
# ℹ 336,766 more rows

4 列的管理

4.1 select() 选择列

#选择需要的变量，创建新的对象mydata,否则select的结果并未保存
mydata <- flights %>%
  select(month, day, arr_time, distance)
mydata

# A tibble: 336,776 × 4
   month   day arr_time distance
   <int> <int>    <int>    <dbl>
 1     1     1      830     1400
 2     1     1      850     1416
 3     1     1      923     1089
 4     1     1     1004     1576
 5     1     1      812      762
 6     1     1      740      719
 7     1     1      913     1065
 8     1     1      709      229
 9     1     1      838      944
10     1     1      753      733
# ℹ 336,766 more rows
…
#选择一个范围，第#列：第#列
mydata <- flights %>% 
  select(1:10)

#不选month和day
mydata <- flights %>% 
  select(-month, -day)

#设置条件 contains(), starts_with, ends_with
flights %>% select(-contains("time"))

# A tibble: 336,776 × 13
    year month   day dep_delay arr_delay carrier flight tailnum origin dest 
   <int> <int> <int>     <dbl>     <dbl> <chr>    <int> <chr>   <chr>  <chr>
 1  2013     1     1         2        11 UA        1545 N14228  EWR    IAH  
 2  2013     1     1         4        20 UA        1714 N24211  LGA    IAH  
 3  2013     1     1         2        33 AA        1141 N619AA  JFK    MIA  
 4  2013     1     1        -1       -18 B6         725 N804JB  JFK    BQN  
 5  2013     1     1        -6       -25 DL         461 N668DN  LGA    ATL  
 6  2013     1     1        -4        12 UA        1696 N39463  EWR    ORD  
 7  2013     1     1        -5        19 B6         507 N516JB  EWR    FLL  
 8  2013     1     1        -3       -14 EV        5708 N829AS  LGA    IAD  
 9  2013     1     1        -3        -8 B6          79 N593JB  JFK    MCO  
10  2013     1     1        -2         8 AA         301 N3ALAA  LGA    ORD  
# ℹ 336,766 more rows
# ℹ 3 more variables: distance <dbl>, hour <dbl>, minute <dbl>

flights %>%  select(starts_with("d"))

# A tibble: 336,776 × 5
     day dep_time dep_delay dest  distance
   <int>    <int>     <dbl> <chr>    <dbl>
 1     1      517         2 IAH       1400
 2     1      533         4 IAH       1416
 3     1      542         2 MIA       1089
 4     1      544        -1 BQN       1576
 5     1      554        -6 ATL        762
 6     1      554        -4 ORD        719
 7     1      555        -5 FLL       1065
 8     1      557        -3 IAD        229
 9     1      557        -3 MCO        944
10     1      558        -2 ORD        733
# ℹ 336,766 more rows

flights %>%  select(year, month, ends_with("time"))

# A tibble: 336,776 × 7
    year month dep_time sched_dep_time arr_time sched_arr_time air_time
   <int> <int>    <int>          <int>    <int>          <int>    <dbl>
 1  2013     1      517            515      830            819      227
 2  2013     1      533            529      850            830      227
 3  2013     1      542            540      923            850      160
 4  2013     1      544            545     1004           1022      183
 5  2013     1      554            600      812            837      116
 6  2013     1      554            558      740            728      150
 7  2013     1      555            600      913            854      158
 8  2013     1      557            600      709            723       53
 9  2013     1      557            600      838            846      140
10  2013     1      558            600      753            745      138
# ℹ 336,766 more rows
…
# 长宽数据转换

## pivot_wider()长型变宽型

flights_by_origin <- flights %>% 
  na.omit() %>%
  group_by(month) %>%
  count(origin) %>% 
  mutate(percent = scales::percent(n / sum(n))  #计算百分比
  ) 
flights_by_origin

# A tibble: 36 × 4
# Groups:   month [12]
   month origin     n percent
   <int> <chr>  <int> <chr>  
 1     1 EWR     9616 36.4%  
 2     1 JFK     9031 34.2%  
 3     1 LGA     7751 29.4%  
 4     2 EWR     8575 36.3%  
 5     2 JFK     8007 33.9%  
 6     2 LGA     7029 29.8%  
 7     3 EWR    10015 35.9%  
 8     3 JFK     9497 34.0%  
 9     3 LGA     8390 30.1%  
10     4 EWR    10231 37.1%  
# ℹ 26 more rows
…
